(run){
  EVENTS 1M; EVENT_GENERATION_MODE Weighted;
  FRAGMENTATION Off; MI_HANDLER None; BEAM_REMNANTS 0;
  SHOWER_GENERATOR CSS; ME_QED Off;
  PDF_LIBRARY LHAPDFSherpa; USE_PDF_ALPHAS 1;
  PDF_SET PDF4LHC15_nnlo_30;
  CORE_SCALE VAR{H_TM2/4}{H_TM2/4}{H_T2/4};
  MODEL HEFT; EW_SCHEME 3;
  # FINITE_TOP_MASS 1; MASS[6] 164;
  MASS[25] 125.; WIDTH[25] 0.;
  BEAM_1 2212 6500; BEAM_2 2212 6500;
  ABS_ERROR 100; IB_THRESHOLD_KILL -1e6;
  ANALYSIS Rivet;
  SP_DOC_MODE 0;
}(run);
(processes){
  Process 93 93 -> 25 93;
  Order (3,0,1);
  Enhance_Function VAR{H_TM2/4};
  End process;
}(processes);
(selector){
  MinSelector {
    FastjetFinder antikt 1 30 0 0.1 0.75 100 100;
    FastjetFinder antikt 1 30 0 0.2 0.75 100 100;
    FastjetFinder antikt 1 30 0 0.3 0.75 100 100;
    FastjetFinder antikt 1 30 0 0.4 0.75 100 100;
    FastjetFinder antikt 1 30 0 0.5 0.75 100 100;
    FastjetFinder antikt 1 30 0 0.6 0.75 100 100;
    FastjetFinder antikt 1 30 0 0.7 0.75 100 100;
    FastjetFinder antikt 1 30 0 0.8 0.75 100 100;
    FastjetFinder antikt 1 30 0 0.9 0.75 100 100;
    FastjetFinder antikt 1 30 0 1.0 0.75 100 100;
    FastjetFinder antikt 1 30 0 1.1 0.75 100 100;
    FastjetFinder antikt 1 30 0 1.2 0.75 100 100;
    FastjetFinder antikt 1 30 0 1.3 0.75 100 100;
    FastjetFinder antikt 1 30 0 1.4 0.75 100 100;
    FastjetFinder antikt 1 30 0 1.5 0.75 100 100;
  }
}(selector);

(analysis){
  BEGIN_RIVET {
    -a CMS_RAD LH2017_ZHJETS LH2017_ZHSHAPES LH2017_ZHSHAPES_LOG;
    USE_HEPMC_SHORT 1;
  } END_RIVET
}(analysis);
